{
  "access_token": "xxxxxxx",
  "scope": [
    "web",
    "full"
  ],
  "instance_url": "https:\/\/cs000.salesforce.com",
  "id": "https:\/\/test.salesforce.com\/id\/xxxxxxx",
  "token_type": "Bearer",
  "date_issued": "2018-09-11 12:33:49",
  "date_expires": "2018-09-11 13:28:49"
}
